{
    "utente": [
      { "id": 1, "nome": "", "cognome": "", "email": "@bearzi.org"},
      { "id": 2, "nome": "", "cognome": "", "email": "@bearzi.it"}

    ],

    "materia": [
        { "id": 1, "nome": "Matematica"},
        { "id": 2, "nome": "Fisica"},
        { "id": 3, "nome": "Chimica"},
        { "id": 4, "nome": "Italiano"},
        { "id": 5, "nome": "Storia"},
        { "id": 6, "nome": "Inglese"},
        { "id": 7, "nome": "Informatica"},
        { "id": 8, "nome": "Sistemi"},
        { "id": 9, "nome": "Telecomunicazioni"},
        { "id": 10, "nome": "Tecnologia"}
      ],

    "domanda": [
        { "id": 1, "domanda": ""}
      ],

    "risposta": [
        { "id": 1, "risposta": ""},
        { "id": 2, "risposta": ""},
        { "id": 3, "risposta": ""},
        { "id": 4, "risposta": ""}
      ]
  }